{
  "$id": "https://cmdaa.io/linux-kernel-module/kernel-beat/schema/cgroup_v1/freezer.json",
  "$schema": "http://json-schema.org/draft-07/schema#",

  "title": "KernelBeat:cgroup_v1:freezer",
  "description": "Beat-driven metrics for the freezer cgroup subsystem.",

  "type": "object",

  "properties": {
    "freezer.self_freezing":    { "type": "integer" },
    "freezer.parent_freezing":  { "type": "integer" }
  }
}
