{
  "$id": "https://cmdaa.io/linux-kernel-module/kernel-beat/schema/cgroup_v1/subsys.json",
  "$schema": "http://json-schema.org/draft-07/schema#",

  "title": "KernelBeat:cgroup_v1:subsys",
  "description": "Beat-driven metrics for a specific cgroup-v1 subsystem",

  "type": "object",

  "properties": {
    "hid": {
      "type": "integer",
      "description": "The hierarchy id of the cgroup subsystem"
    },
    "path": {
      "type": "string",
      "description": "The base path of the cgroup subsystem within '/sys/fs/cgroup/'"
    }
  },

  "anyOf": [
    { "$ref": "blkio.json" },
    { "$ref": "cpu.json" },
    { "$ref": "cpuacct.json" },
    { "$ref": "cpuset.json" },
    { "$ref": "freezer.json" },
    { "$ref": "memory.json" },
    { "$ref": "net_cls.json" },
    { "$ref": "net_prio.json" },
    { "$ref": "pids.json" }
  ]
}
