{
  "$id": "https://cmdaa.io/linux-kernel-module/kernel-beat/schema/cgroup_v1/net_prio/interface.json",
  "$schema": "http://json-schema.org/draft-07/schema#",

  "title": "KernelBeat:cgroup_v1:net_prio:interface",
  "description": "Beat-driven metrics for a specific network interface from the cgroup net_prio subsystem",

  "type": "object",

  "properties": {
    "name": {
      "type": "string",
      "description": "The name of the network interface"
    },
    "priority": {
      "type": "integer",
      "description": "The priority of the network interface"
    }
  },

  "additionalProperties": false
}
