{
  "$id": "https://cmdaa.io/linux-kernel-module/kernel-beat/schema/cpu.json",
  "$schema": "http://json-schema.org/draft-07/schema#",

  "title": "KernelBeat:cpu",
  "description": "Beat-driven cpu usage metrics",

  "type": "object",

  "properties": {
    "user": {
      "type": "integer",
      "description": "CPU time spent in user space (u64)"
    },
    "nice": {
      "type": "integer",
      "description": "CPU time spent on low-priority processes (u64)"
    },
    "sys": {
      "type": "integer",
      "description": "CPU time spent in kernel space (u64)"
    },
    "idle": {
      "type": "integer",
      "description": "CPU time spent idle (u64)"
    },
    "iowait": {
      "type": "integer",
      "description": "CPU time spent waiting on disk access (u64)"
    },
    "irq": {
      "type": "integer",
      "description": "CPU time spent servicing hardware interrupts (u64)"
    },
    "softIrq": {
      "type": "integer",
      "description": "CPU time spent servicing software interrupts (u64)"
    },
    "steal": {
      "type": "integer",
      "description": "Time spent in involuntary wait by the virtual CPU while the hypervisor was servicing another processor (u64)"
    },
    "guest": {
      "type": "integer",
      "description": "Time spent by a virtual CPU in a hypervisor (u64)"
    },
    "guestNice": {
      "type": "integer",
      "description": "Time spent by a virtual CPU in a hypervisor on low-priority processes (u64)"
    }
  }
}
