{
  "$id": "https://cmdaa.io/linux-kernel-module/kernel-beat/schema/process.json",
  "$schema": "http://json-schema.org/draft-07/schema#",

  "title": "KernelBeat:process",
  "description": "Beat-driven metrics for a specific process",

  "type": "object",

  "properties": {
    "name": {
      "type": "string",
      "description": "Process name"
    },
    "state": {
      "type": "string",
      "description": "Process state: R (running), S (sleeping), D (disk sleep), T (stopped), t (tracing stop), X (dead), Z (zombie), x (dead), K (wake kill), W (waking), P (parked), N (noload), n (new)"
    },
    "pid": {
      "type": "integer",
      "description": "Process id (s32)"
    },
    "ppid": {
      "type": "integer",
      "description": "Parent process id (s32)"
    },
    "pgrp": {
      "type": "integer",
      "description": "Parent group id (s32)"
    },
    "uid": {
      "type": "integer",
      "description": "Owning user id (u32)"
    },
    "cgroups": {
      "type": "array",
      "items": { "type": [ "integer", "string" ] },

      "description": "Array of '%cgroup/subsystem-id%' entries recording the set of cgroups to which this process belongs. These ids reference entries in the most recent, top-level 'cgroup_v1' set"
    },
    "cpuStart": {
      "type": "integer",
      "description": "CPU start time (seconds since epoch) (u64)"
    },
    "cpuUser": {
      "type": "integer",
      "description": "CPU time spent in user space (u32)"
    },
    "cpuSys": {
      "type": "integer",
      "description": "CPU time spent in kernel space (u32)"
    },
    "fdOpen": {
      "type": "integer",
      "description": "The number of currently opened files (u32)"
    },
    "fdLimitHard": {
      "type": "integer",
      "description": "Hard limit number of open files (u32)"
    },
    "fdLimitSoft": {
      "type": "integer",
      "description": "Soft limit number of open files (u32)"
    },
    "memRss": {
      "type": "integer",
      "description": "Memory allocated and in RAM (bytes) Resident Set Size (u64)"
    },
    "memShare": {
      "type": "integer",
      "description": "Shared memory (bytes) (u64)"
    },
    "memSize": {
      "type": "integer",
      "description": "Virtual memory size (bytes), all memory accessible by this process including allocated and in-use, allocated but not in-use, swapped out, from shared libraries (u64)"
    },
    "memFaultsMinor": {
      "type": "integer",
      "description": "The number of minor memory faults (no disk access) (u32)"
    },
    "memFaultsMajor": {
      "type": "integer",
      "description": "The number of major memory faults requiring disk access (u32)"
    },
    "cmdLine": {
      "type": "string",
      "description": "The full process command line including all arguments"
    }
  }
}
